[
{
  "fields": {
    "model": "logentry",
    "app_label": "admin"
  },
  "model": "contenttypes.contenttype",
  "pk": 1
},
{
  "fields": {
    "model": "permission",
    "app_label": "auth"
  },
  "model": "contenttypes.contenttype",
  "pk": 2
},
{
  "fields": {
    "model": "group",
    "app_label": "auth"
  },
  "model": "contenttypes.contenttype",
  "pk": 3
},
{
  "fields": {
    "model": "user",
    "app_label": "auth"
  },
  "model": "contenttypes.contenttype",
  "pk": 4
},
{
  "fields": {
    "model": "contenttype",
    "app_label": "contenttypes"
  },
  "model": "contenttypes.contenttype",
  "pk": 5
},
{
  "fields": {
    "model": "session",
    "app_label": "sessions"
  },
  "model": "contenttypes.contenttype",
  "pk": 6
},
{
  "fields": {
    "model": "author",
    "app_label": "reader"
  },
  "model": "contenttypes.contenttype",
  "pk": 7
},
{
  "fields": {
    "model": "book",
    "app_label": "reader"
  },
  "model": "contenttypes.contenttype",
  "pk": 8
},
{
  "fields": {
    "model": "reader",
    "app_label": "reader"
  },
  "model": "contenttypes.contenttype",
  "pk": 9
},
{
  "fields": {
    "model": "userprofile",
    "app_label": "reader"
  },
  "model": "contenttypes.contenttype",
  "pk": 10
},
{
  "fields": {
    "expire_date": "2015-06-25T13:30:30.080Z",
    "session_data": "NTg1ZDE2MzZmYWRlMTAwYWUwODZiNmYzMTQ0ZGVlZGJhY2U5MWZhYzp7ImRqYW5nb190aW1lem9uZSI6IkV1cm9wZS9LaWV2IiwiX2F1dGhfdXNlcl9oYXNoIjoiMjRjZTA3ODVlMjc3MGNjNWMyODBkYmI4YzBkZTZkY2VlMmQ5ODIwOSIsIl9hdXRoX3VzZXJfaWQiOiIxIiwiX2F1dGhfdXNlcl9iYWNrZW5kIjoiZGphbmdvLmNvbnRyaWIuYXV0aC5iYWNrZW5kcy5Nb2RlbEJhY2tlbmQifQ=="
  },
  "model": "sessions.session",
  "pk": "gxjvb7hea1g0u39yd8i4epdwnliirf76"
},
{
  "fields": {
    "expire_date": "2015-06-24T16:39:09.668Z",
    "session_data": "NDZiMjNlMGM3NjMwZTBlNmJmYjQ0MTY5MjkxZjcwYjhhOTI1YzA5NTp7Il9hdXRoX3VzZXJfaGFzaCI6IjI0Y2UwNzg1ZTI3NzBjYzVjMjgwZGJiOGMwZGU2ZGNlZTJkOTgyMDkiLCJfYXV0aF91c2VyX2JhY2tlbmQiOiJkamFuZ28uY29udHJpYi5hdXRoLmJhY2tlbmRzLk1vZGVsQmFja2VuZCIsIl9hdXRoX3VzZXJfaWQiOiIxIn0="
  },
  "model": "sessions.session",
  "pk": "m45a6h3dts75kftyraurvu0h25gvu779"
},
{
  "fields": {
    "expire_date": "2015-06-29T12:28:01.325Z",
    "session_data": "NDZiMjNlMGM3NjMwZTBlNmJmYjQ0MTY5MjkxZjcwYjhhOTI1YzA5NTp7Il9hdXRoX3VzZXJfaGFzaCI6IjI0Y2UwNzg1ZTI3NzBjYzVjMjgwZGJiOGMwZGU2ZGNlZTJkOTgyMDkiLCJfYXV0aF91c2VyX2JhY2tlbmQiOiJkamFuZ28uY29udHJpYi5hdXRoLmJhY2tlbmRzLk1vZGVsQmFja2VuZCIsIl9hdXRoX3VzZXJfaWQiOiIxIn0="
  },
  "model": "sessions.session",
  "pk": "t48kx9vjwqhoc3ium4ennaimoj7jh2g2"
},
{
  "fields": {
    "first_name": "ktoto",
    "last_name": "kakoeto",
    "email": "fvf@d.th",
    "avatar": "images/author_avatar/\u0421\u043d\u0438\u043c\u043e\u043a_\u044d\u043a\u0440\u0430\u043d\u0430_\u043e\u0442_2015-05-13_220042_hxEpBES.png"
  },
  "model": "reader.author",
  "pk": 2
},
{
  "fields": {
    "first_name": "name1",
    "last_name": "lastname1",
    "email": "mi9onev@gmail.com",
    "avatar": "images/author_avatar/image2.png"
  },
  "model": "reader.author",
  "pk": 15
},
{
  "fields": {
    "first_name": "marina",
    "last_name": "per",
    "email": "mi9onev@gmail.com",
    "avatar": ""
  },
  "model": "reader.author",
  "pk": 42
},
{
  "fields": {
    "first_name": "marina",
    "last_name": "per",
    "email": "mi9onev@gmail.com",
    "avatar": ""
  },
  "model": "reader.author",
  "pk": 43
},
{
  "fields": {
    "first_name": "marina",
    "last_name": "p",
    "email": "dfgfd@dfgfd.hj",
    "avatar": "images/author_avatar/image3_pyIiBqs.png"
  },
  "model": "reader.author",
  "pk": 44
},
{
  "fields": {
    "name": "mybook",
    "author": 2
  },
  "model": "reader.book",
  "pk": 3
},
{
  "fields": {
    "name": "bookk2",
    "author": 42
  },
  "model": "reader.book",
  "pk": 4
},
{
  "fields": {
    "name": "book3",
    "author": 42
  },
  "model": "reader.book",
  "pk": 5
},
{
  "fields": {
    "name": "book_1",
    "author": 44
  },
  "model": "reader.book",
  "pk": 6
},
{
  "fields": {
    "name": "book_fdf",
    "author": 44
  },
  "model": "reader.book",
  "pk": 7
},
{
  "fields": {
    "book": [
      3
    ],
    "name": "Marina"
  },
  "model": "reader.reader",
  "pk": 1
},
{
  "fields": {
    "book": [],
    "name": "fhdfghgf"
  },
  "model": "reader.reader",
  "pk": 2
},
{
  "fields": {
    "book": [
      3
    ],
    "name": "Natasha"
  },
  "model": "reader.reader",
  "pk": 3
},
{
  "fields": {
    "book": [],
    "name": "tyu"
  },
  "model": "reader.reader",
  "pk": 4
},
{
  "fields": {
    "codename": "add_logentry",
    "name": "Can add log entry",
    "content_type": 1
  },
  "model": "auth.permission",
  "pk": 1
},
{
  "fields": {
    "codename": "change_logentry",
    "name": "Can change log entry",
    "content_type": 1
  },
  "model": "auth.permission",
  "pk": 2
},
{
  "fields": {
    "codename": "delete_logentry",
    "name": "Can delete log entry",
    "content_type": 1
  },
  "model": "auth.permission",
  "pk": 3
},
{
  "fields": {
    "codename": "add_permission",
    "name": "Can add permission",
    "content_type": 2
  },
  "model": "auth.permission",
  "pk": 4
},
{
  "fields": {
    "codename": "change_permission",
    "name": "Can change permission",
    "content_type": 2
  },
  "model": "auth.permission",
  "pk": 5
},
{
  "fields": {
    "codename": "delete_permission",
    "name": "Can delete permission",
    "content_type": 2
  },
  "model": "auth.permission",
  "pk": 6
},
{
  "fields": {
    "codename": "add_group",
    "name": "Can add group",
    "content_type": 3
  },
  "model": "auth.permission",
  "pk": 7
},
{
  "fields": {
    "codename": "change_group",
    "name": "Can change group",
    "content_type": 3
  },
  "model": "auth.permission",
  "pk": 8
},
{
  "fields": {
    "codename": "delete_group",
    "name": "Can delete group",
    "content_type": 3
  },
  "model": "auth.permission",
  "pk": 9
},
{
  "fields": {
    "codename": "add_user",
    "name": "Can add user",
    "content_type": 4
  },
  "model": "auth.permission",
  "pk": 10
},
{
  "fields": {
    "codename": "change_user",
    "name": "Can change user",
    "content_type": 4
  },
  "model": "auth.permission",
  "pk": 11
},
{
  "fields": {
    "codename": "delete_user",
    "name": "Can delete user",
    "content_type": 4
  },
  "model": "auth.permission",
  "pk": 12
},
{
  "fields": {
    "codename": "add_contenttype",
    "name": "Can add content type",
    "content_type": 5
  },
  "model": "auth.permission",
  "pk": 13
},
{
  "fields": {
    "codename": "change_contenttype",
    "name": "Can change content type",
    "content_type": 5
  },
  "model": "auth.permission",
  "pk": 14
},
{
  "fields": {
    "codename": "delete_contenttype",
    "name": "Can delete content type",
    "content_type": 5
  },
  "model": "auth.permission",
  "pk": 15
},
{
  "fields": {
    "codename": "add_session",
    "name": "Can add session",
    "content_type": 6
  },
  "model": "auth.permission",
  "pk": 16
},
{
  "fields": {
    "codename": "change_session",
    "name": "Can change session",
    "content_type": 6
  },
  "model": "auth.permission",
  "pk": 17
},
{
  "fields": {
    "codename": "delete_session",
    "name": "Can delete session",
    "content_type": 6
  },
  "model": "auth.permission",
  "pk": 18
},
{
  "fields": {
    "codename": "add_author",
    "name": "Can add author",
    "content_type": 7
  },
  "model": "auth.permission",
  "pk": 19
},
{
  "fields": {
    "codename": "change_author",
    "name": "Can change author",
    "content_type": 7
  },
  "model": "auth.permission",
  "pk": 20
},
{
  "fields": {
    "codename": "delete_author",
    "name": "Can delete author",
    "content_type": 7
  },
  "model": "auth.permission",
  "pk": 21
},
{
  "fields": {
    "codename": "add_book",
    "name": "Can add book",
    "content_type": 8
  },
  "model": "auth.permission",
  "pk": 22
},
{
  "fields": {
    "codename": "change_book",
    "name": "Can change book",
    "content_type": 8
  },
  "model": "auth.permission",
  "pk": 23
},
{
  "fields": {
    "codename": "delete_book",
    "name": "Can delete book",
    "content_type": 8
  },
  "model": "auth.permission",
  "pk": 24
},
{
  "fields": {
    "codename": "add_reader",
    "name": "Can add reader",
    "content_type": 9
  },
  "model": "auth.permission",
  "pk": 25
},
{
  "fields": {
    "codename": "change_reader",
    "name": "Can change reader",
    "content_type": 9
  },
  "model": "auth.permission",
  "pk": 26
},
{
  "fields": {
    "codename": "delete_reader",
    "name": "Can delete reader",
    "content_type": 9
  },
  "model": "auth.permission",
  "pk": 27
},
{
  "fields": {
    "codename": "add_userprofile",
    "name": "Can add user profile",
    "content_type": 10
  },
  "model": "auth.permission",
  "pk": 28
},
{
  "fields": {
    "codename": "change_userprofile",
    "name": "Can change user profile",
    "content_type": 10
  },
  "model": "auth.permission",
  "pk": 29
},
{
  "fields": {
    "codename": "delete_userprofile",
    "name": "Can delete user profile",
    "content_type": 10
  },
  "model": "auth.permission",
  "pk": 30
},
{
  "fields": {
    "username": "marina",
    "first_name": "",
    "last_name": "",
    "is_active": true,
    "is_superuser": true,
    "is_staff": true,
    "last_login": "2015-06-15T12:28:01.224Z",
    "groups": [],
    "user_permissions": [],
    "password": "pbkdf2_sha256$20000$zivTrd8oES1h$Ja9xDEy3Le/vdfeqBpmB0lqNsdxaRNC4yX5tBT0CcU0=",
    "email": "",
    "date_joined": "2015-05-28T12:02:28.024Z"
  },
  "model": "auth.user",
  "pk": 1
},
{
  "fields": {
    "username": "user",
    "first_name": "",
    "last_name": "",
    "is_active": true,
    "is_superuser": true,
    "is_staff": true,
    "last_login": "2015-06-08T16:52:33.371Z",
    "groups": [],
    "user_permissions": [],
    "password": "pbkdf2_sha256$20000$LqAbQvS9WqIf$O+SuFlpfDFAxfaZLaYuIRCsiGJxtjrCPVl7/sqk/MBg=",
    "email": "",
    "date_joined": "2015-06-08T16:48:25Z"
  },
  "model": "auth.user",
  "pk": 2
},
{
  "fields": {
    "username": "user2",
    "first_name": "",
    "last_name": "",
    "is_active": true,
    "is_superuser": false,
    "is_staff": false,
    "last_login": "2015-06-08T16:50:22.441Z",
    "groups": [],
    "user_permissions": [],
    "password": "pbkdf2_sha256$20000$Xp56IRtR8Jmf$JgNTiblJD9cKEXXclSl7xDZwT08ORduV99zXtfOhexk=",
    "email": "",
    "date_joined": "2015-06-08T16:50:11.800Z"
  },
  "model": "auth.user",
  "pk": 3
},
{
  "fields": {
    "username": "user_",
    "first_name": "",
    "last_name": "",
    "is_active": true,
    "is_superuser": false,
    "is_staff": true,
    "last_login": "2015-06-10T16:27:22.906Z",
    "groups": [],
    "user_permissions": [],
    "password": "pbkdf2_sha256$20000$BN2vZvFTHAJU$fbn5/ykrZiThNZPvbh0ts+dn8yRRun1LayIND8BJknI=",
    "email": "",
    "date_joined": "2015-06-10T16:26:08Z"
  },
  "model": "auth.user",
  "pk": 4
},
{
  "fields": {
    "action_flag": 1,
    "action_time": "2015-05-28T12:08:26.729Z",
    "object_repr": "marina p",
    "object_id": "1",
    "change_message": "",
    "user": 1,
    "content_type": 7
  },
  "model": "admin.logentry",
  "pk": 1
},
{
  "fields": {
    "action_flag": 1,
    "action_time": "2015-05-28T12:12:09.977Z",
    "object_repr": "ktoto kakoeto",
    "object_id": "2",
    "change_message": "",
    "user": 1,
    "content_type": 7
  },
  "model": "admin.logentry",
  "pk": 2
},
{
  "fields": {
    "action_flag": 1,
    "action_time": "2015-05-28T12:12:22.080Z",
    "object_repr": "marina - book1",
    "object_id": "1",
    "change_message": "",
    "user": 1,
    "content_type": 8
  },
  "model": "admin.logentry",
  "pk": 3
},
{
  "fields": {
    "action_flag": 1,
    "action_time": "2015-05-28T12:12:27.295Z",
    "object_repr": "marina - book2",
    "object_id": "2",
    "change_message": "",
    "user": 1,
    "content_type": 8
  },
  "model": "admin.logentry",
  "pk": 4
},
{
  "fields": {
    "action_flag": 1,
    "action_time": "2015-05-28T12:12:39.008Z",
    "object_repr": "ktoto - mybook",
    "object_id": "3",
    "change_message": "",
    "user": 1,
    "content_type": 8
  },
  "model": "admin.logentry",
  "pk": 5
},
{
  "fields": {
    "action_flag": 1,
    "action_time": "2015-06-02T11:25:25.756Z",
    "object_repr": "Marina - reader.Book.None",
    "object_id": "1",
    "change_message": "",
    "user": 1,
    "content_type": 9
  },
  "model": "admin.logentry",
  "pk": 6
},
{
  "fields": {
    "action_flag": 2,
    "action_time": "2015-06-02T11:25:38.707Z",
    "object_repr": "Marina - reader.Book.None",
    "object_id": "1",
    "change_message": "Changed book_name.",
    "user": 1,
    "content_type": 9
  },
  "model": "admin.logentry",
  "pk": 7
},
{
  "fields": {
    "action_flag": 1,
    "action_time": "2015-06-02T11:33:58.892Z",
    "object_repr": "fhdfghgf - reader.Book.None",
    "object_id": "2",
    "change_message": "",
    "user": 1,
    "content_type": 9
  },
  "model": "admin.logentry",
  "pk": 8
},
{
  "fields": {
    "action_flag": 2,
    "action_time": "2015-06-02T11:34:09.836Z",
    "object_repr": "Marina - reader.Book.None",
    "object_id": "1",
    "change_message": "Changed book.",
    "user": 1,
    "content_type": 9
  },
  "model": "admin.logentry",
  "pk": 9
},
{
  "fields": {
    "action_flag": 1,
    "action_time": "2015-06-02T11:58:27.538Z",
    "object_repr": "Natasha - reader.Book.None",
    "object_id": "3",
    "change_message": "",
    "user": 1,
    "content_type": 9
  },
  "model": "admin.logentry",
  "pk": 10
},
{
  "fields": {
    "action_flag": 1,
    "action_time": "2015-06-02T11:59:41.753Z",
    "object_repr": "tyu - reader.Book.None",
    "object_id": "4",
    "change_message": "",
    "user": 1,
    "content_type": 9
  },
  "model": "admin.logentry",
  "pk": 11
},
{
  "fields": {
    "action_flag": 3,
    "action_time": "2015-06-02T14:16:41.101Z",
    "object_repr": "refg lastname1",
    "object_id": "14",
    "change_message": "",
    "user": 1,
    "content_type": 7
  },
  "model": "admin.logentry",
  "pk": 12
},
{
  "fields": {
    "action_flag": 3,
    "action_time": "2015-06-02T14:16:41.294Z",
    "object_repr": "name1 wer",
    "object_id": "12",
    "change_message": "",
    "user": 1,
    "content_type": 7
  },
  "model": "admin.logentry",
  "pk": 13
},
{
  "fields": {
    "action_flag": 3,
    "action_time": "2015-06-02T14:16:41.470Z",
    "object_repr": "name1 wer",
    "object_id": "11",
    "change_message": "",
    "user": 1,
    "content_type": 7
  },
  "model": "admin.logentry",
  "pk": 14
},
{
  "fields": {
    "action_flag": 3,
    "action_time": "2015-06-02T14:16:41.646Z",
    "object_repr": "author kakoeto",
    "object_id": "10",
    "change_message": "",
    "user": 1,
    "content_type": 7
  },
  "model": "admin.logentry",
  "pk": 15
},
{
  "fields": {
    "action_flag": 3,
    "action_time": "2015-06-02T14:16:41.831Z",
    "object_repr": "name1 eegf",
    "object_id": "9",
    "change_message": "",
    "user": 1,
    "content_type": 7
  },
  "model": "admin.logentry",
  "pk": 16
},
{
  "fields": {
    "action_flag": 3,
    "action_time": "2015-06-02T14:16:42.015Z",
    "object_repr": "eee ddd",
    "object_id": "8",
    "change_message": "",
    "user": 1,
    "content_type": 7
  },
  "model": "admin.logentry",
  "pk": 17
},
{
  "fields": {
    "action_flag": 3,
    "action_time": "2015-06-02T14:16:42.217Z",
    "object_repr": "qaz wsx",
    "object_id": "7",
    "change_message": "",
    "user": 1,
    "content_type": 7
  },
  "model": "admin.logentry",
  "pk": 18
},
{
  "fields": {
    "action_flag": 3,
    "action_time": "2015-06-02T14:16:42.418Z",
    "object_repr": "rgrfdgf fdgdfgfdg",
    "object_id": "6",
    "change_message": "",
    "user": 1,
    "content_type": 7
  },
  "model": "admin.logentry",
  "pk": 19
},
{
  "fields": {
    "action_flag": 3,
    "action_time": "2015-06-02T14:16:42.619Z",
    "object_repr": "author fam",
    "object_id": "5",
    "change_message": "",
    "user": 1,
    "content_type": 7
  },
  "model": "admin.logentry",
  "pk": 20
},
{
  "fields": {
    "action_flag": 3,
    "action_time": "2015-06-02T14:16:42.803Z",
    "object_repr": "refg eegf",
    "object_id": "4",
    "change_message": "",
    "user": 1,
    "content_type": 7
  },
  "model": "admin.logentry",
  "pk": 21
},
{
  "fields": {
    "action_flag": 3,
    "action_time": "2015-06-02T14:16:42.987Z",
    "object_repr": "refg eegf",
    "object_id": "3",
    "change_message": "",
    "user": 1,
    "content_type": 7
  },
  "model": "admin.logentry",
  "pk": 22
},
{
  "fields": {
    "action_flag": 1,
    "action_time": "2015-06-08T16:48:25.574Z",
    "object_repr": "user",
    "object_id": "2",
    "change_message": "",
    "user": 1,
    "content_type": 4
  },
  "model": "admin.logentry",
  "pk": 23
},
{
  "fields": {
    "action_flag": 2,
    "action_time": "2015-06-08T16:49:29.286Z",
    "object_repr": "user",
    "object_id": "2",
    "change_message": "Changed is_staff and is_superuser.",
    "user": 1,
    "content_type": 4
  },
  "model": "admin.logentry",
  "pk": 24
},
{
  "fields": {
    "action_flag": 2,
    "action_time": "2015-06-08T18:03:02.857Z",
    "object_repr": "qwer ddgdf",
    "object_id": "16",
    "change_message": "Changed avatar.",
    "user": 1,
    "content_type": 7
  },
  "model": "admin.logentry",
  "pk": 25
},
{
  "fields": {
    "action_flag": 2,
    "action_time": "2015-06-08T18:08:28.301Z",
    "object_repr": "name1 lastname1",
    "object_id": "15",
    "change_message": "Changed avatar.",
    "user": 1,
    "content_type": 7
  },
  "model": "admin.logentry",
  "pk": 26
},
{
  "fields": {
    "action_flag": 2,
    "action_time": "2015-06-08T18:09:43.784Z",
    "object_repr": "name1 lastname1",
    "object_id": "15",
    "change_message": "Changed avatar.",
    "user": 1,
    "content_type": 7
  },
  "model": "admin.logentry",
  "pk": 27
},
{
  "fields": {
    "action_flag": 2,
    "action_time": "2015-06-08T18:10:04.122Z",
    "object_repr": "refg lastname1",
    "object_id": "13",
    "change_message": "Changed avatar.",
    "user": 1,
    "content_type": 7
  },
  "model": "admin.logentry",
  "pk": 28
},
{
  "fields": {
    "action_flag": 2,
    "action_time": "2015-06-08T18:10:12.160Z",
    "object_repr": "refg lastname1",
    "object_id": "13",
    "change_message": "Changed avatar.",
    "user": 1,
    "content_type": 7
  },
  "model": "admin.logentry",
  "pk": 29
},
{
  "fields": {
    "action_flag": 2,
    "action_time": "2015-06-08T18:11:14.522Z",
    "object_repr": "refg lastname1",
    "object_id": "13",
    "change_message": "Changed avatar.",
    "user": 1,
    "content_type": 7
  },
  "model": "admin.logentry",
  "pk": 30
},
{
  "fields": {
    "action_flag": 2,
    "action_time": "2015-06-08T18:12:10.062Z",
    "object_repr": "marina p",
    "object_id": "1",
    "change_message": "Changed avatar.",
    "user": 1,
    "content_type": 7
  },
  "model": "admin.logentry",
  "pk": 31
},
{
  "fields": {
    "action_flag": 3,
    "action_time": "2015-06-08T18:29:08.101Z",
    "object_repr": "ewfdes ewfsw",
    "object_id": "20",
    "change_message": "",
    "user": 1,
    "content_type": 7
  },
  "model": "admin.logentry",
  "pk": 32
},
{
  "fields": {
    "action_flag": 3,
    "action_time": "2015-06-08T18:29:08.212Z",
    "object_repr": "sdsfds dfdsf",
    "object_id": "19",
    "change_message": "",
    "user": 1,
    "content_type": 7
  },
  "model": "admin.logentry",
  "pk": 33
},
{
  "fields": {
    "action_flag": 3,
    "action_time": "2015-06-08T18:29:08.354Z",
    "object_repr": "sdsfds dfdsf",
    "object_id": "18",
    "change_message": "",
    "user": 1,
    "content_type": 7
  },
  "model": "admin.logentry",
  "pk": 34
},
{
  "fields": {
    "action_flag": 3,
    "action_time": "2015-06-08T18:29:08.466Z",
    "object_repr": "erih remark",
    "object_id": "17",
    "change_message": "",
    "user": 1,
    "content_type": 7
  },
  "model": "admin.logentry",
  "pk": 35
},
{
  "fields": {
    "action_flag": 3,
    "action_time": "2015-06-08T18:48:49.230Z",
    "object_repr": "we re",
    "object_id": "25",
    "change_message": "",
    "user": 1,
    "content_type": 7
  },
  "model": "admin.logentry",
  "pk": 36
},
{
  "fields": {
    "action_flag": 3,
    "action_time": "2015-06-08T18:48:49.327Z",
    "object_repr": "dsds dsad",
    "object_id": "24",
    "change_message": "",
    "user": 1,
    "content_type": 7
  },
  "model": "admin.logentry",
  "pk": 37
},
{
  "fields": {
    "action_flag": 3,
    "action_time": "2015-06-08T18:48:49.439Z",
    "object_repr": "ds sdfd",
    "object_id": "23",
    "change_message": "",
    "user": 1,
    "content_type": 7
  },
  "model": "admin.logentry",
  "pk": 38
},
{
  "fields": {
    "action_flag": 3,
    "action_time": "2015-06-08T18:48:49.551Z",
    "object_repr": "fersfdsf fdsfsdf",
    "object_id": "22",
    "change_message": "",
    "user": 1,
    "content_type": 7
  },
  "model": "admin.logentry",
  "pk": 39
},
{
  "fields": {
    "action_flag": 3,
    "action_time": "2015-06-08T18:48:49.663Z",
    "object_repr": "erfed ferfer",
    "object_id": "21",
    "change_message": "",
    "user": 1,
    "content_type": 7
  },
  "model": "admin.logentry",
  "pk": 40
},
{
  "fields": {
    "action_flag": 3,
    "action_time": "2015-06-08T19:02:10.772Z",
    "object_repr": "marina author_latname",
    "object_id": "29",
    "change_message": "",
    "user": 1,
    "content_type": 7
  },
  "model": "admin.logentry",
  "pk": 41
},
{
  "fields": {
    "action_flag": 3,
    "action_time": "2015-06-08T19:02:10.876Z",
    "object_repr": "marina author_latname",
    "object_id": "28",
    "change_message": "",
    "user": 1,
    "content_type": 7
  },
  "model": "admin.logentry",
  "pk": 42
},
{
  "fields": {
    "action_flag": 3,
    "action_time": "2015-06-08T19:02:10.966Z",
    "object_repr": "marina author_latname",
    "object_id": "27",
    "change_message": "",
    "user": 1,
    "content_type": 7
  },
  "model": "admin.logentry",
  "pk": 43
},
{
  "fields": {
    "action_flag": 3,
    "action_time": "2015-06-08T19:02:11.057Z",
    "object_repr": "ds fd",
    "object_id": "26",
    "change_message": "",
    "user": 1,
    "content_type": 7
  },
  "model": "admin.logentry",
  "pk": 44
},
{
  "fields": {
    "action_flag": 3,
    "action_time": "2015-06-08T19:02:11.169Z",
    "object_repr": "qwer ddgdf",
    "object_id": "16",
    "change_message": "",
    "user": 1,
    "content_type": 7
  },
  "model": "admin.logentry",
  "pk": 45
},
{
  "fields": {
    "action_flag": 2,
    "action_time": "2015-06-08T19:32:17.761Z",
    "object_repr": "fdfvd vdvd",
    "object_id": "31",
    "change_message": "Changed avatar.",
    "user": 1,
    "content_type": 7
  },
  "model": "admin.logentry",
  "pk": 46
},
{
  "fields": {
    "action_flag": 2,
    "action_time": "2015-06-08T19:35:56.295Z",
    "object_repr": "author_name ddgdf",
    "object_id": "34",
    "change_message": "Changed avatar.",
    "user": 1,
    "content_type": 7
  },
  "model": "admin.logentry",
  "pk": 47
},
{
  "fields": {
    "action_flag": 3,
    "action_time": "2015-06-08T19:36:16.932Z",
    "object_repr": "author_name ddgdf",
    "object_id": "34",
    "change_message": "",
    "user": 1,
    "content_type": 7
  },
  "model": "admin.logentry",
  "pk": 48
},
{
  "fields": {
    "action_flag": 3,
    "action_time": "2015-06-08T19:36:17.018Z",
    "object_repr": "fdfvd vdvd",
    "object_id": "32",
    "change_message": "",
    "user": 1,
    "content_type": 7
  },
  "model": "admin.logentry",
  "pk": 49
},
{
  "fields": {
    "action_flag": 3,
    "action_time": "2015-06-08T19:36:17.119Z",
    "object_repr": "fdfvd vdvd",
    "object_id": "31",
    "change_message": "",
    "user": 1,
    "content_type": 7
  },
  "model": "admin.logentry",
  "pk": 50
},
{
  "fields": {
    "action_flag": 3,
    "action_time": "2015-06-08T19:36:17.231Z",
    "object_repr": "author_name author_latname",
    "object_id": "30",
    "change_message": "",
    "user": 1,
    "content_type": 7
  },
  "model": "admin.logentry",
  "pk": 51
},
{
  "fields": {
    "action_flag": 3,
    "action_time": "2015-06-08T20:12:57.954Z",
    "object_repr": "author_name ddgdf",
    "object_id": "36",
    "change_message": "",
    "user": 1,
    "content_type": 7
  },
  "model": "admin.logentry",
  "pk": 52
},
{
  "fields": {
    "action_flag": 3,
    "action_time": "2015-06-08T20:12:58.073Z",
    "object_repr": "author_name ddgdf",
    "object_id": "35",
    "change_message": "",
    "user": 1,
    "content_type": 7
  },
  "model": "admin.logentry",
  "pk": 53
},
{
  "fields": {
    "action_flag": 2,
    "action_time": "2015-06-08T20:13:05.519Z",
    "object_repr": "name1 lastname1",
    "object_id": "15",
    "change_message": "Changed avatar.",
    "user": 1,
    "content_type": 7
  },
  "model": "admin.logentry",
  "pk": 54
},
{
  "fields": {
    "action_flag": 2,
    "action_time": "2015-06-08T20:13:15.891Z",
    "object_repr": "refg lastname1",
    "object_id": "13",
    "change_message": "Changed avatar.",
    "user": 1,
    "content_type": 7
  },
  "model": "admin.logentry",
  "pk": 55
},
{
  "fields": {
    "action_flag": 2,
    "action_time": "2015-06-08T20:13:20.714Z",
    "object_repr": "ktoto kakoeto",
    "object_id": "2",
    "change_message": "Changed avatar.",
    "user": 1,
    "content_type": 7
  },
  "model": "admin.logentry",
  "pk": 56
},
{
  "fields": {
    "action_flag": 2,
    "action_time": "2015-06-08T20:13:24.665Z",
    "object_repr": "marina p",
    "object_id": "1",
    "change_message": "Changed avatar.",
    "user": 1,
    "content_type": 7
  },
  "model": "admin.logentry",
  "pk": 57
},
{
  "fields": {
    "action_flag": 2,
    "action_time": "2015-06-08T20:35:20.758Z",
    "object_repr": "name1 lastname1",
    "object_id": "15",
    "change_message": "Changed avatar.",
    "user": 1,
    "content_type": 7
  },
  "model": "admin.logentry",
  "pk": 58
},
{
  "fields": {
    "action_flag": 3,
    "action_time": "2015-06-09T11:04:13.330Z",
    "object_repr": "Author object",
    "object_id": "33",
    "change_message": "",
    "user": 1,
    "content_type": 7
  },
  "model": "admin.logentry",
  "pk": 59
},
{
  "fields": {
    "action_flag": 2,
    "action_time": "2015-06-10T16:27:04.783Z",
    "object_repr": "user_",
    "object_id": "4",
    "change_message": "Changed is_staff.",
    "user": 1,
    "content_type": 4
  },
  "model": "admin.logentry",
  "pk": 60
},
{
  "fields": {
    "action_flag": 1,
    "action_time": "2015-06-15T12:52:09.872Z",
    "object_repr": "marina - bookk2",
    "object_id": "4",
    "change_message": "",
    "user": 1,
    "content_type": 8
  },
  "model": "admin.logentry",
  "pk": 61
},
{
  "fields": {
    "action_flag": 1,
    "action_time": "2015-06-15T12:52:21.303Z",
    "object_repr": "marina - book3",
    "object_id": "5",
    "change_message": "",
    "user": 1,
    "content_type": 8
  },
  "model": "admin.logentry",
  "pk": 62
},
{
  "fields": {
    "action_flag": 1,
    "action_time": "2015-06-15T13:36:43.492Z",
    "object_repr": "marina - book_1",
    "object_id": "6",
    "change_message": "",
    "user": 1,
    "content_type": 8
  },
  "model": "admin.logentry",
  "pk": 63
},
{
  "fields": {
    "action_flag": 1,
    "action_time": "2015-06-15T13:36:54.956Z",
    "object_repr": "marina - book_fdf",
    "object_id": "7",
    "change_message": "",
    "user": 1,
    "content_type": 8
  },
  "model": "admin.logentry",
  "pk": 64
},
{
  "fields": {
    "action_flag": 3,
    "action_time": "2015-06-15T19:48:00.358Z",
    "object_repr": "choto kakoeto",
    "object_id": "49",
    "change_message": "",
    "user": 1,
    "content_type": 7
  },
  "model": "admin.logentry",
  "pk": 65
},
{
  "fields": {
    "action_flag": 3,
    "action_time": "2015-06-15T19:48:00.597Z",
    "object_repr": "ktoto kakoeto kto",
    "object_id": "48",
    "change_message": "",
    "user": 1,
    "content_type": 7
  },
  "model": "admin.logentry",
  "pk": 66
},
{
  "fields": {
    "action_flag": 3,
    "action_time": "2015-06-15T19:48:00.698Z",
    "object_repr": "ktoto kakoeto kto",
    "object_id": "47",
    "change_message": "",
    "user": 1,
    "content_type": 7
  },
  "model": "admin.logentry",
  "pk": 67
},
{
  "fields": {
    "action_flag": 3,
    "action_time": "2015-06-15T19:48:00.805Z",
    "object_repr": "ktoto kakoeto kto",
    "object_id": "46",
    "change_message": "",
    "user": 1,
    "content_type": 7
  },
  "model": "admin.logentry",
  "pk": 68
},
{
  "fields": {
    "action_flag": 3,
    "action_time": "2015-06-15T19:48:00.911Z",
    "object_repr": "ktoto kakoeto",
    "object_id": "45",
    "change_message": "",
    "user": 1,
    "content_type": 7
  },
  "model": "admin.logentry",
  "pk": 69
},
{
  "fields": {
    "action_flag": 2,
    "action_time": "2015-06-15T20:14:00.329Z",
    "object_repr": "ktoto kakoeto",
    "object_id": "2",
    "change_message": "Changed first_name.",
    "user": 1,
    "content_type": 7
  },
  "model": "admin.logentry",
  "pk": 70
}
]
